<svg width="400" height="3" viewBox="0 0 400 3" fill="none" xmlns="http://www.w3.org/2000/svg">
<path d="M0 0H398.5C399.328 0 400 0.671573 400 1.5C400 2.32843 399.328 3 398.5 3H3C1.34314 3 0 1.65685 0 0Z" fill="#161B46"/>
</svg>
