<svg width="15" height="15" viewBox="0 0 15 15" fill="none" xmlns="http://www.w3.org/2000/svg">
<path d="M7.50018 10.4287L10.285 8.40527L12.8208 9.2446L13.4789 12.0297C13.273 12.3003 13.0479 12.5591 12.8033 12.8037C11.9846 13.6224 11.0097 14.228 9.94605 14.5938L7.5 13.087L7.50018 10.4287Z" fill="#F6F9F9"/>
<path d="M7.50058 10.4287L4.71558 8.40527L5.77938 5.13135H9.22176L10.2856 8.40527L7.50058 10.4287Z" fill="#161B46"/>
<path d="M4.71482 8.40527L7.49979 10.4287V13.0869L5.05893 14.5956C3.99328 14.23 3.01657 13.6237 2.19651 12.8037C1.95389 12.561 1.73044 12.3044 1.52588 12.0362L2.18126 9.22496L4.71482 8.40527Z" fill="#F6F9F9"/>
<path d="M9.94551 14.5933C9.16885 14.8604 8.34494 14.9998 7.49946 14.9998C6.65588 14.9998 5.83373 14.861 5.05859 14.5951L7.49946 13.0864L9.94551 14.5933Z" fill="#161B46"/>
<path d="M5.77918 5.13068L4.71541 8.4046L2.18183 9.22431L0.00244141 7.33088C0.0354891 5.82515 0.509915 4.39319 1.36434 3.18389L4.23081 2.96924L5.77918 5.13068Z" fill="#F6F9F9"/>
<path d="M9.22171 5.13095H5.77933L4.23096 2.96951L5.32182 0.319773C6.0192 0.109142 6.75146 0 7.50053 0C8.25051 0 8.98366 0.109377 9.68183 0.320507L10.7921 2.98048L9.22171 5.13095Z" fill="#F6F9F9"/>
<path d="M12.8208 9.24465L10.285 8.40532L9.22119 5.1314L10.7916 2.98096L13.6442 3.19619C14.4964 4.4072 14.9681 5.8405 14.9981 7.34709L12.8208 9.24465Z" fill="#ECECEF"/>
<path d="M1.52606 12.0347C0.536269 10.7367 0 9.15914 0 7.49892C0 7.44253 0.00082106 7.38626 0.00205265 7.33008L2.18144 9.2235L1.52606 12.0347Z" fill="#161B46"/>
<path d="M1.36353 3.18351C1.61002 2.83464 1.88804 2.50425 2.19626 2.19603C3.08315 1.30914 4.15308 0.671796 5.32083 0.319092L4.22996 2.96883L1.36353 3.18351Z" fill="#161B46"/>
<path d="M13.6443 3.19506L10.7917 2.97982L9.6814 0.319824C10.8482 0.672675 11.9171 1.30976 12.8034 2.196C13.115 2.50766 13.3958 2.84191 13.6443 3.19506Z" fill="#135772"/>
<path d="M14.9984 7.34619C14.9994 7.39724 15.0003 7.44833 15.0003 7.49955C15.0003 9.15698 14.4658 10.7321 13.4792 12.0288L12.821 9.24375L14.9984 7.34619Z" fill="#135772"/>
<path d="M12.8208 9.24465L10.285 8.40532L9.22119 5.1314L10.7916 2.98096L13.6442 3.19619C14.4964 4.4072 14.9681 5.8405 14.9981 7.34709L12.8208 9.24465Z" fill="#F6F9F9"/>
<path d="M13.6443 3.19555L10.7917 2.98031L9.6814 0.320312C10.8482 0.673163 11.9171 1.31025 12.8034 2.19649C13.115 2.50814 13.3958 2.8424 13.6443 3.19555Z" fill="#161B46"/>
<path d="M14.9984 7.34619C14.9994 7.39724 15.0003 7.44833 15.0003 7.49955C15.0003 9.15698 14.4658 10.7321 13.4792 12.0288L12.821 9.24375L14.9984 7.34619Z" fill="#161B46"/>
<path d="M7.5 14.9998C8.34546 14.9998 9.16936 14.8604 9.94605 14.5933L7.5 13.0864V14.9998Z" fill="#161B46"/>
</svg>
