<svg width="30" height="30" viewBox="0 0 30 30" fill="none" xmlns="http://www.w3.org/2000/svg">
<path d="M28.7714 14.9998C28.7714 18.6506 27.3152 22.1558 24.7357 24.7353C22.1562 27.3148 18.651 28.771 15.0002 28.771C11.3494 28.771 7.84416 27.3148 5.26466 24.7353C2.68517 22.1558 1.229 18.6506 1.229 14.9998C1.229 11.349 2.68517 7.84379 5.26466 5.2643C7.84416 2.6848 11.3494 1.22864 15.0002 1.22864C18.651 1.22864 22.1562 2.6848 24.7357 5.2643C27.3152 7.84379 28.7714 11.349 28.7714 14.9998Z" fill="white"/>
<path d="M28.7714 14.9998C28.7714 18.6506 27.3152 22.1558 24.7357 24.7353C22.1562 27.3148 18.651 28.771 15.0002 28.771C11.3494 28.771 7.84416 27.3148 5.26466 24.7353C2.68517 22.1558 1.229 18.6506 1.229 14.9998C1.229 11.349 2.68517 7.84379 5.26466 5.2643C7.84416 2.6848 11.3494 1.22864 15.0002 1.22864C18.651 1.22864 22.1562 2.6848 24.7357 5.2643C27.3152 7.84379 28.7714 11.349 28.7714 14.9998Z" stroke="#FF0000" stroke-width="0.397605"/>
<path d="M15 1C11.2868 1 7.71917 2.47697 5.09807 5.09807C2.46657 7.72957 1 11.2868 1 15C1 18.7132 2.47697 22.2808 5.09807 24.9019C7.72957 27.523 11.2868 29 15 29C18.7132 29 22.2808 27.523 24.9019 24.9019C27.5334 22.2704 29 18.7132 29 15C29 11.2868 27.523 7.71917 24.9019 5.09807C22.2808 2.47697 18.7132 1 15 1ZM15 1.45765C18.5884 1.45765 22.0312 2.88262 24.5795 5.42051C27.1174 7.9584 28.5424 11.4012 28.5424 15C28.5424 18.5884 27.1174 22.0312 24.5795 24.5795C22.0416 27.1174 18.5988 28.5424 15 28.5424C11.4116 28.5424 7.9688 27.1174 5.42051 24.5795C2.88262 22.0416 1.45765 18.5988 1.45765 15C1.45765 11.4116 2.88262 7.9688 5.42051 5.42051C7.9688 2.88262 11.4116 1.45765 15 1.45765Z" fill="#002E60"/>
<path d="M15 1C11.2868 1 7.71917 2.47697 5.09807 5.09807C2.46657 7.72957 1 11.2868 1 15C1 18.7132 2.47697 22.2808 5.09807 24.9019C7.72957 27.523 11.2868 29 15 29C18.7132 29 22.2808 27.523 24.9019 24.9019C27.5334 22.2704 29 18.7132 29 15C29 11.2868 27.523 7.71917 24.9019 5.09807C22.2808 2.47697 18.7132 1 15 1ZM15 1.45765C18.5884 1.45765 22.0312 2.88262 24.5795 5.42051C27.1174 7.9584 28.5424 11.4012 28.5424 15C28.5424 18.5884 27.1174 22.0312 24.5795 24.5795C22.0416 27.1174 18.5988 28.5424 15 28.5424C11.4116 28.5424 7.9688 27.1174 5.42051 24.5795C2.88262 22.0416 1.45765 18.5988 1.45765 15C1.45765 11.4116 2.88262 7.9688 5.42051 5.42051C7.9688 2.88262 11.4116 1.45765 15 1.45765Z" stroke="#002E60" stroke-width="0.954499"/>
<path d="M15 1C11.2868 1 7.71917 2.47697 5.09807 5.09807C2.46657 7.72957 1 11.2868 1 15C1 18.7132 2.47697 22.2808 5.09807 24.9019C7.72957 27.523 11.2868 29 15 29C18.7132 29 22.2808 27.523 24.9019 24.9019C27.5334 22.2704 29 18.7132 29 15C29 11.2868 27.523 7.71917 24.9019 5.09807C22.2808 2.47697 18.7132 1 15 1ZM15 1.45765C18.5884 1.45765 22.0312 2.88262 24.5795 5.42051C27.1174 7.9584 28.5424 11.4012 28.5424 15C28.5424 18.5884 27.1174 22.0312 24.5795 24.5795C22.0416 27.1174 18.5988 28.5424 15 28.5424C11.4116 28.5424 7.9688 27.1174 5.42051 24.5795C2.88262 22.0416 1.45765 18.5988 1.45765 15C1.45765 11.4116 2.88262 7.9688 5.42051 5.42051C7.9688 2.88262 11.4116 1.45765 15 1.45765Z" fill="#7BB1DD"/>
<path d="M23.7058 15.0519C23.7058 17.3505 22.7905 19.5556 21.1679 21.1782C19.5453 22.8008 17.3403 23.7161 15.0416 23.7161C12.743 23.7161 10.5379 22.8008 8.91533 21.1782C7.29275 19.5556 6.37744 17.3505 6.37744 15.0519C6.37744 12.7532 7.29275 10.5482 8.91533 8.92558C10.5379 7.303 12.743 6.3877 15.0416 6.3877C17.3403 6.3877 19.5453 7.303 21.1679 8.92558C22.7905 10.5482 23.7058 12.7532 23.7058 15.0519Z" stroke="#002E60" stroke-width="0.441789"/>
<path d="M23.1017 15.0417C23.1017 17.1844 22.2488 19.2438 20.7303 20.7624C19.2117 22.2809 17.1523 23.1338 15.0096 23.1338C12.867 23.1338 10.8075 22.2809 9.28895 20.7624C7.77038 19.2438 6.91748 17.1844 6.91748 15.0417C6.91748 12.8991 7.77038 10.8396 9.28895 9.32105C10.8075 7.80248 12.867 6.94958 15.0096 6.94958C17.1523 6.94958 19.2117 7.80248 20.7303 9.32105C22.2488 10.8396 23.1017 12.8991 23.1017 15.0417Z" fill="#7BB1DD"/>
<path fill-rule="evenodd" clip-rule="evenodd" d="M8.32264 8.35361C7.74017 10.8187 7.74017 13.0341 7.76097 14.5527C7.71937 21.4487 12.8263 23.5913 14.9898 24.2466C17.1532 23.5913 22.2602 21.4487 22.2186 14.5527C22.2394 13.0341 22.2394 10.8187 21.657 8.35361C18.3078 7.77114 16.2691 7.82315 14.9898 7.81274C13.7105 7.82315 11.6822 7.77114 8.32264 8.35361Z" fill="#002E60"/>
<path fill-rule="evenodd" clip-rule="evenodd" d="M9.0189 8.84267C8.65485 10.4757 8.46763 11.9422 8.39482 13.1696C8.36362 14.5009 8.35322 15.8531 8.56124 17.0492C8.67566 17.6733 8.85248 18.3286 9.18532 19.0046C9.88219 20.3152 10.8807 21.4697 11.7856 22.0834C12.9817 22.9987 14.2195 23.4979 14.9996 23.7476C15.7797 23.4979 17.007 22.9987 18.2135 22.0834C19.1185 21.4697 20.117 20.3048 20.8138 19.0046C21.1467 18.3286 21.3339 17.6733 21.4379 17.0492C21.6459 15.8531 21.6355 14.5009 21.6043 13.1696C21.5315 11.9422 21.3443 10.4757 20.9803 8.84267C17.9743 8.2914 16.1541 8.34341 14.9996 8.33301C13.845 8.34341 12.0248 8.2914 9.0189 8.84267Z" fill="#FFBB59"/>
<path d="M12.9916 25.37C12.9604 25.3492 12.898 25.2763 12.846 25.2451C12.3571 24.9331 11.7851 25.2347 11.7539 25.8276C11.7331 26.1917 12.0035 26.4933 12.2947 26.5557C12.5964 26.6077 12.8148 26.4725 13.0228 26.2957L13.3348 26.6181C13.1788 26.7845 12.9812 26.9405 12.638 27.0133C12.5756 27.0237 12.4819 27.0342 12.3779 27.0342C11.7331 26.9717 11.369 26.6285 11.265 26.0876C11.2026 25.7964 11.2546 25.4948 11.4106 25.2347C11.5978 24.9331 11.8683 24.7563 12.2219 24.6835C12.638 24.6003 13.0644 24.7355 13.3244 25.0163L12.9916 25.37Z" fill="#002E60"/>
<path d="M14.334 24.6835H13.814V26.9717H14.334V24.6835Z" fill="#002E60"/>
<path d="M16.6951 25.1619H15.9982V26.9717H15.4781V25.1619H14.7812V24.6835H16.6951V25.1619Z" fill="#002E60"/>
<path d="M19.1713 24.6835L18.2768 26.0564V26.9717H17.7775V26.0564L16.9038 24.6835H17.4967L18.0375 25.6196L18.5888 24.6835H19.1713Z" fill="#002E60"/>
<path fill-rule="evenodd" clip-rule="evenodd" d="M6.18039 11.0268L5.95157 11.4533L3.97534 10.4235L4.22497 9.95549L5.3483 9.88268L4.77623 8.89457L5.01546 8.42651L7.00209 9.47703L6.77326 9.90348L5.46271 9.217L6.03478 10.2467L4.88024 10.3611L6.18039 11.0268Z" fill="#002E60"/>
<path d="M8.86343 7.40722L8.49939 7.78166L7.98974 7.58404L7.33446 8.28092L7.56329 8.78018L7.22005 9.13382L6.23193 6.88716L6.54397 6.55432L8.86343 7.40722ZM7.56329 7.41762L6.8144 7.12639L7.14724 7.85447L7.56329 7.41762Z" fill="#002E60"/>
<path fill-rule="evenodd" clip-rule="evenodd" d="M9.18642 7.16815L8.02148 5.26473L8.40633 5.0151L10.0289 5.65998L9.31123 4.47424L9.72728 4.22461L10.8818 6.13843L10.5282 6.35685L8.85358 5.70158L9.60247 6.91852L9.18642 7.16815Z" fill="#002E60"/>
<path d="M12.5664 3.94356C12.5352 3.93316 12.452 3.88116 12.3896 3.86035C11.8487 3.70434 11.3807 4.14119 11.5159 4.70285C11.5991 5.04609 11.9319 5.26451 12.2232 5.23331C12.5248 5.20211 12.6912 5.01488 12.8368 4.79646L13.2113 5.01489C13.1073 5.21251 12.972 5.42053 12.66 5.57655C12.5976 5.60775 12.5248 5.63896 12.4104 5.65976C11.7863 5.77417 11.3495 5.55575 11.0998 5.06689C10.9646 4.80686 10.923 4.50523 11.0062 4.22439C11.0998 3.89156 11.3079 3.65233 11.6199 3.48591C11.9943 3.29869 12.4312 3.30909 12.7536 3.49631L12.5664 3.94356Z" fill="#002E60"/>
<path d="M22.727 6.40851L22.1861 5.99246L21.1044 7.41743L20.6987 7.11579L21.7909 5.70123L21.25 5.28518L21.5308 4.92114L23.0078 6.05487L22.727 6.40851Z" fill="#002E60"/>
<path fill-rule="evenodd" clip-rule="evenodd" d="M13.7319 3.06995L13.7839 5.30621L14.2624 5.29581L14.2416 4.3909L15.1673 4.3701L15.1881 5.275L15.6666 5.2646L15.625 3.01794L15.1257 3.02835L15.1465 3.92285L14.2312 3.94365L14.2104 3.05955L13.7319 3.06995Z" fill="#002E60"/>
<path fill-rule="evenodd" clip-rule="evenodd" d="M16.8295 3.16345L18.4833 3.52749L18.3793 3.95394L17.2144 3.69391L17.1104 4.15157L18.0777 4.34919L17.8488 4.74443L17.0167 4.56761L16.9127 5.03567L18.1089 5.2957L18.0153 5.71174L16.3511 5.3581L16.8295 3.16345Z" fill="#002E60"/>
<path fill-rule="evenodd" clip-rule="evenodd" d="M19.8371 5.03573C19.5458 4.8173 19.5458 4.69249 19.6186 4.58847C19.6914 4.50526 19.7851 4.50526 19.8787 4.53647C20.0347 4.58847 20.1595 4.69249 20.2531 4.8173C20.3051 4.87971 20.3467 4.95252 20.3883 5.01492L20.7732 4.7757C20.7108 4.66128 20.5547 4.34925 20.0971 4.15163C19.8787 4.05802 19.3586 3.9644 19.1298 4.50527C19.0362 4.73409 19.0778 4.87971 19.1298 4.98372C19.2546 5.19174 19.4626 5.33736 19.6394 5.49338C19.7123 5.55579 19.7955 5.62859 19.8267 5.7222C19.8475 5.79501 19.8267 5.85742 19.7747 5.90943C19.5042 6.13825 19.0258 5.6494 18.9322 5.37897L18.5161 5.57659C18.7345 6.00304 19.109 6.38788 19.6914 6.40868C19.8995 6.39828 20.1491 6.28387 20.2635 6.02384C20.3363 5.81582 20.3571 5.62859 20.2531 5.46217C20.1491 5.29575 19.9723 5.12934 19.8371 5.03573Z" fill="#002E60"/>
<path fill-rule="evenodd" clip-rule="evenodd" d="M23.6958 6.71033L24.7672 8.01048L24.4343 8.29131L23.6646 7.3656L23.3006 7.65684L23.9663 8.44733L23.519 8.59294L22.9782 7.93767L22.6037 8.2393L23.3942 9.17541L23.0614 9.45624L21.9692 8.14569L23.6958 6.71033Z" fill="#002E60"/>
<path d="M25.3915 9.97628L25.1626 9.51863L24.5906 9.80986L24.809 10.2467C24.9234 10.4859 25.1106 10.5171 25.2563 10.4651C25.4227 10.4131 25.5163 10.2051 25.3915 9.97628ZM24.2057 11.6197L23.9457 11.11L24.3722 10.3611L24.1849 10.0075L23.5505 10.3299L23.332 9.89307L25.3291 8.88416L25.7555 9.73705C25.8179 9.85146 25.8387 9.92427 25.8699 10.0179C25.9323 10.1947 25.9323 10.3611 25.8803 10.4963C25.6931 10.9436 25.1002 11.1724 24.6738 10.7772L24.2057 11.6197Z" fill="#002E60"/>
<path d="M25.4012 15.229C25.214 15.3954 24.9228 15.3538 24.7668 15.1874C24.6939 15.1146 24.6523 15.0106 24.6523 14.8961C24.6627 14.8129 24.6835 14.7401 24.7148 14.6673C24.7564 14.5841 24.8188 14.5217 24.8916 14.4905C25.058 14.3969 25.2868 14.3969 25.4428 14.4905C25.5572 14.5633 25.6301 14.6777 25.6613 14.8129C25.6821 14.8961 25.6925 14.9898 25.6925 15.0938C25.6925 15.3642 25.6093 15.6138 25.4116 15.7386C25.3596 15.7698 25.2868 15.7906 25.2036 15.801C24.9852 15.8218 24.8188 15.7594 24.6835 15.6554L24.8292 15.4266C25.214 15.7282 25.4012 15.437 25.4012 15.229ZM25.422 14.8857C25.422 14.7713 25.3284 14.6985 25.2348 14.6777C25.1932 14.6673 25.1412 14.6673 25.0996 14.6777C25.058 14.6881 25.0164 14.7193 24.9956 14.7505C24.8916 14.8753 24.9644 15.0418 25.058 15.073C25.0892 15.0834 25.1412 15.0938 25.1932 15.1042C25.3804 15.0938 25.422 14.9377 25.422 14.8857Z" fill="#7BB1DD"/>
<path d="M27.1081 15.4889H26.9313V15.7906H26.6609V15.4889H25.9952L25.9536 15.2809L26.6817 14.4176H26.9313V15.2497H27.1081V15.4889ZM26.6713 15.2601V14.8337L26.2865 15.2601H26.6713Z" fill="#7BB1DD"/>
<path d="M3.22598 14.7817L3.16357 14.5529L3.52762 14.4385H3.74604V15.7906H3.46521V14.7089L3.22598 14.7817Z" fill="#7BB1DD"/>
<path d="M4.88048 15.083C5.0365 15.1454 5.11971 15.2702 5.11971 15.4262C5.11971 15.6135 4.98449 15.7383 4.81808 15.7799C4.75567 15.8007 4.68286 15.8007 4.59965 15.8007C4.38122 15.7903 4.08999 15.6967 4.07959 15.4262C4.08999 15.239 4.1316 15.1662 4.28761 15.083C4.12119 14.979 4.05879 14.8022 4.1628 14.615C4.1836 14.5733 4.22521 14.5317 4.26681 14.5109C4.30842 14.4797 4.36042 14.4589 4.41243 14.4485C4.46443 14.4381 4.52684 14.4277 4.58925 14.4277C4.82847 14.4277 5.0365 14.5421 5.0573 14.7814C5.0677 14.8438 5.0573 14.9166 5.0157 14.9686C5.0053 15.0102 4.95329 15.0518 4.88048 15.083ZM4.74527 14.9478C4.77647 14.9166 4.79727 14.875 4.79727 14.8334C4.79727 14.7814 4.77647 14.7502 4.74527 14.719C4.71406 14.6878 4.66206 14.6774 4.61005 14.6774C4.54764 14.6774 4.50604 14.6878 4.47484 14.719C4.44363 14.7502 4.42283 14.7814 4.42283 14.8334C4.42283 14.875 4.44363 14.9166 4.47484 14.9478C4.53724 14.9998 4.65165 15.0102 4.74527 14.9478ZM4.82848 15.3846C4.82848 15.2494 4.67246 15.2078 4.56845 15.2182C4.46443 15.2286 4.36042 15.291 4.36042 15.3846C4.36042 15.5095 4.49564 15.5719 4.59965 15.5719C4.72446 15.5719 4.82848 15.4887 4.82848 15.3846Z" fill="#7BB1DD"/>
<path fill-rule="evenodd" clip-rule="evenodd" d="M15 23.7368C15.7801 23.4872 17.0074 22.9879 18.214 22.0726C19.1189 21.459 20.1174 20.294 20.8143 18.9939C21.1471 18.3178 21.3343 17.6625 21.4383 17.0385C21.6464 15.8423 21.636 14.4902 21.6048 13.1588C21.5319 11.9315 21.3447 10.4649 20.9807 8.83193C17.9747 8.28066 16.1545 8.33267 15 8.32227" fill="#E9AB00"/>
<path fill-rule="evenodd" clip-rule="evenodd" d="M21.1055 15.8115C20.8247 19.2543 19.2125 21.6362 15 23.134C10.7875 21.6258 9.17536 19.2543 8.89453 15.8115H21.1055Z" fill="#7BB1DD"/>
<path fill-rule="evenodd" clip-rule="evenodd" d="M8.8534 15.3019C8.8222 14.6362 8.843 13.9393 8.88461 13.1904C8.94701 12.0359 9.01982 10.6941 9.36306 9.16518C12.0362 8.68672 13.846 8.69712 14.9901 8.65552C16.1342 8.68672 17.944 8.67632 20.6171 9.16518C20.9604 10.7046 21.0332 12.0463 21.0956 13.1904C21.1476 13.9393 21.158 14.6362 21.1268 15.3123L8.8534 15.3019Z" fill="white"/>
<path fill-rule="evenodd" clip-rule="evenodd" d="M19.067 20.7209C18.7446 21.0537 18.3702 21.3658 17.9541 21.6674L13.1072 15.8219H15.0002L19.067 20.7209ZM20.7936 17.6629C20.6376 18.2454 20.4192 18.7967 20.128 19.3063L17.2364 15.8115H19.2647L20.7936 17.6629ZM16.4251 22.5515C15.9883 22.7595 15.5098 22.9571 14.9898 23.1444L8.88428 15.8219H10.8709L16.4251 22.5515Z" fill="#A8C9E8"/>
<path fill-rule="evenodd" clip-rule="evenodd" d="M16.4977 14.3759C17.3506 14.3343 18.2243 14.1991 18.6299 14.0951C18.5467 14.7608 17.8706 14.688 18.2555 15.312H17.3922C17.0697 15.1976 16.7265 15.0624 16.4353 15.0416C16.352 15.0312 16.2792 15.0312 16.2064 15.0624C15.3015 15.4057 14.5734 15.0104 13.8974 15C13.8766 15.0832 13.7309 15.1768 13.4397 15.208C12.9509 15.2704 12.6076 15.0624 12.2228 15.052C12.0876 15.052 11.9523 15.0936 11.8379 15.312C11.6403 15.0416 11.5259 14.8336 11.2555 14.5008C10.8498 14.3031 10.4754 14.1471 10.1113 14.0119L10.1321 13.9391C11.2971 14.2927 12.1708 14.4279 12.9613 14.5008C13.9286 14.5424 14.9791 14.6048 15.9256 14.532C16.196 14.4279 16.3 14.3863 16.4977 14.3759Z" fill="#FBC24E"/>
<path fill-rule="evenodd" clip-rule="evenodd" d="M18.5046 14.1885C18.4006 14.6149 17.7661 14.7813 18.1925 15.3118H17.6829C17.3604 15.1974 16.7988 14.9478 16.1747 14.9478C15.9459 15.1246 15.5298 15.2078 14.8954 15.0622C14.6041 14.9998 14.1985 14.8958 13.7824 14.9062C13.6888 15.3014 12.3783 15.1454 11.9102 14.5317L11.3173 14.3861L11.1821 14.2821C12.1286 14.4797 13.0855 14.5941 13.5848 14.6149C14.4793 14.6461 15.3218 14.6461 15.9251 14.6253C16.1227 14.5629 16.1643 14.5421 16.2683 14.5005C16.4139 14.4277 16.5803 14.4381 16.726 14.4381C17.5477 14.3757 18.0781 14.2613 18.5046 14.1885Z" fill="#EAAA00"/>
<path fill-rule="evenodd" clip-rule="evenodd" d="M14.4906 14.3653C14.605 14.1989 14.7922 14.1053 15.0107 14.0637L15.0003 14.5525C15.0523 14.5525 15.1147 14.5525 15.1667 14.5525L15.1563 14.0325C15.77 13.9493 16.4252 14.0533 16.9557 14.1781V14.3549C17.0181 14.3549 17.0701 14.3445 17.1221 14.3445V14.1365L18.8487 13.5332C18.3599 12.8884 18.4015 12.1291 18.5263 11.3594C18.4327 11.7442 18.2038 12.4619 17.6214 13.1172C17.1533 13.6372 17.2053 13.7516 17.1221 13.8973L17.0909 10.4025L16.6957 10.5377C16.6124 10.5585 16.6645 10.6001 16.5916 10.6313L16.1964 10.7873L16.6541 10.7665C16.7165 10.7665 16.6749 10.6729 16.7373 10.6625L16.9869 10.6417L16.9557 14.0949C16.6853 13.6684 16.2068 13.1588 16.4044 12.0875C15.926 13.9077 14.3762 13.71 14.4906 14.3653ZM13.8145 12.4307C13.3985 13.8557 12.1607 13.6788 12.2335 14.2509C12.4208 14.0845 12.608 14.0741 12.7848 14.0221V14.4589C12.8368 14.4693 12.8888 14.4693 12.9408 14.4693L12.9512 14.0013C13.3985 13.9493 13.7937 14.0013 14.1994 14.0429C13.8769 13.5124 13.6689 12.982 13.8145 12.4307Z" fill="#EAAA00"/>
<path fill-rule="evenodd" clip-rule="evenodd" d="M18.5362 11.3492C18.4426 11.7341 18.2138 12.4518 17.6313 13.107C17.1633 13.6271 17.2153 13.7415 17.1321 13.8871L17.1112 11.8485L18.5362 11.3492ZM14.2405 12.8054L16.4144 12.0565C15.9255 13.9079 14.3757 13.6999 14.5006 14.3552C14.1261 14.0223 13.7725 13.3671 14.2405 12.8054ZM12.0147 13.055L13.8141 12.431C13.398 13.8559 12.1603 13.6791 12.2331 14.2512C11.817 13.8351 11.8066 13.3359 12.0147 13.055Z" fill="#FFBB59"/>
<path fill-rule="evenodd" clip-rule="evenodd" d="M15.1665 9.96587V9.3418L14.7712 9.47701C14.688 9.49781 14.74 9.53942 14.6672 9.57062L14.272 9.72664L14.7296 9.70584C14.792 9.70584 14.7504 9.61223 14.8128 9.60183L15.0625 9.58102V10.0179L15.1665 9.96587Z" fill="#EAAA00"/>
<path fill-rule="evenodd" clip-rule="evenodd" d="M12.93 11.5054V10.7461L12.5348 10.8813C12.4515 10.9021 12.5035 10.9437 12.4307 10.9749L12.0459 11.1205L12.4931 11.1101C12.5556 11.1101 12.514 11.0165 12.5764 11.0061L12.826 10.9853V11.547L12.93 11.5054Z" fill="#EAAA00"/>
<path fill-rule="evenodd" clip-rule="evenodd" d="M14.7182 9.6955C14.7806 9.6955 14.739 9.60189 14.8014 9.59149L14.7598 9.46667C14.6766 9.48748 14.7286 9.52908 14.6558 9.56029L14.7182 9.6955Z" fill="#FFBB59"/>
<path fill-rule="evenodd" clip-rule="evenodd" d="M15.8521 9.72656C15.2176 10.9539 14.3543 10.7459 14.2503 11.3387C13.9174 11.0683 14.0631 10.5171 14.2711 10.2778L15.8521 9.72656Z" fill="#FFBB59"/>
<path fill-rule="evenodd" clip-rule="evenodd" d="M16.0405 10.7875C15.822 10.5275 15.6764 10.2154 15.8533 9.72656C15.2188 10.9539 14.3555 10.7459 14.2515 11.3387C14.6155 10.8499 15.7076 10.8083 16.0405 10.7875Z" fill="#EAAA00"/>
<path fill-rule="evenodd" clip-rule="evenodd" d="M14.2612 12.7013C13.8868 12.15 13.918 11.5883 14.2508 11.4323C14.8437 11.2243 15.603 10.9851 16.0294 10.7979C15.7382 11.942 14.3964 12.046 14.2612 12.7013Z" fill="#FFBB59"/>
<path fill-rule="evenodd" clip-rule="evenodd" d="M16.0402 10.7874C15.7385 11.9419 14.4072 12.0459 14.272 12.7012C14.5528 12.3267 15.1977 12.0771 16.4146 12.0355C16.1442 11.6923 15.957 11.3074 16.0402 10.7874Z" fill="#EAAA00"/>
<path fill-rule="evenodd" clip-rule="evenodd" d="M13.5127 11.2972C12.9927 11.4949 12.535 11.6509 12.1294 11.7861C11.9421 11.9733 11.7133 12.4934 12.0566 12.9302C11.9942 12.4206 13.0759 12.2333 13.5127 11.2972Z" fill="#FFBB59"/>
<path fill-rule="evenodd" clip-rule="evenodd" d="M12.0553 12.9302C11.9929 12.4206 13.085 12.2333 13.5115 11.2972C13.4907 11.5261 13.4075 12.0149 13.8131 12.4206C13.1786 12.4518 12.3569 12.5454 12.0553 12.9302Z" fill="#EAAA00"/>
<path fill-rule="evenodd" clip-rule="evenodd" d="M12.4828 11.1098C12.5452 11.1098 12.5036 11.0162 12.566 11.0058L12.5244 10.881C12.4412 10.9018 12.4932 10.9434 12.4204 10.9746L12.4828 11.1098Z" fill="#FFBB59"/>
<path fill-rule="evenodd" clip-rule="evenodd" d="M11.8784 11.8485C11.4311 12.1709 10.6198 12.7742 10.1934 13.7935C10.4742 13.7623 10.755 13.7623 11.1607 13.8455C10.8382 13.6271 10.7758 13.3775 11.8784 11.8485Z" fill="#FFBB59"/>
<path fill-rule="evenodd" clip-rule="evenodd" d="M11.4854 13.9182L11.1526 13.8558C10.8302 13.6374 10.7677 13.3877 11.8703 11.8588C11.6518 12.254 11.2982 12.9821 11.4854 13.9182Z" fill="#EAAA00"/>
<path fill-rule="evenodd" clip-rule="evenodd" d="M16.6535 10.7462C16.7159 10.7462 16.6743 10.6526 16.7367 10.6421L16.6951 10.5173C16.6119 10.5381 16.6639 10.5797 16.5911 10.6109L16.6535 10.7462Z" fill="#FFBB59"/>
<path fill-rule="evenodd" clip-rule="evenodd" d="M15.1149 16.6538L15.3749 16.9763C15.4061 17.0179 15.3957 17.0595 15.3957 17.0907C15.5726 17.0803 15.7806 17.1427 15.895 17.3091C16.0198 17.4963 16.1134 17.5899 16.2174 17.6628C16.3526 17.7668 16.4879 17.8084 16.6127 17.85C16.7895 17.902 16.9247 18.0164 17.0079 18.2556C17.0391 18.2556 17.0599 18.2348 17.1535 18.266L17.4968 18.3804C17.5176 18.3908 17.5488 18.4012 17.5696 18.422C17.5904 18.4532 17.6008 18.474 17.6008 18.5053C17.6008 18.5365 17.6008 18.5677 17.5904 18.5989L17.3304 18.9629C17.3096 18.9941 17.2575 19.0045 17.2471 19.0045C17.32 19.1709 17.3304 19.3894 17.1847 19.5766C17.0079 19.8054 16.9767 19.8782 16.9351 20.003C16.9039 20.0966 16.8935 20.2735 16.8935 20.4711C16.8935 20.6271 16.8103 20.7727 16.6439 20.8767C16.6439 20.8871 16.6543 20.9079 16.6543 20.9391V21.3136C16.6543 21.3656 16.6543 21.4072 16.6335 21.4488C16.6023 21.5008 16.5607 21.5216 16.4983 21.5216C16.4463 21.532 16.4047 21.5216 16.3942 21.5112L16.0198 21.3864C15.9782 21.3656 15.9782 21.3448 15.9782 21.3448C15.6038 21.6464 15.2917 21.376 14.9901 21.3656C14.6885 21.376 14.3764 21.6464 14.002 21.3448C14.002 21.3448 13.9916 21.3656 13.9604 21.3864L13.5859 21.5112C13.5755 21.5112 13.5339 21.5216 13.4819 21.5216C13.4299 21.5112 13.3883 21.4904 13.3467 21.4488C13.3259 21.4176 13.3155 21.3656 13.3259 21.3136V20.9391C13.3259 20.9079 13.3363 20.8871 13.3363 20.8767C13.1595 20.7727 13.0867 20.6271 13.0867 20.4711C13.0867 20.2735 13.0763 20.0966 13.0451 20.003C13.0035 19.8678 12.9723 19.8054 12.7954 19.5766C12.6498 19.3894 12.6706 19.1709 12.733 19.0045C12.7226 19.0045 12.681 18.9941 12.6498 18.9629L12.3898 18.5989C12.369 18.5677 12.369 18.5261 12.3794 18.5053C12.3794 18.474 12.3898 18.4428 12.4106 18.422C12.4314 18.4012 12.4626 18.3908 12.4834 18.3804L12.8266 18.266C12.9203 18.2348 12.9411 18.2556 12.9723 18.2556C13.0555 18.006 13.1907 17.8916 13.3675 17.85C13.4923 17.8188 13.6275 17.7668 13.7628 17.6628C13.8668 17.5899 13.95 17.4859 14.0852 17.3091C14.21 17.1427 14.4076 17.0803 14.5844 17.0907C14.5844 17.0595 14.5636 17.0179 14.6052 16.9763L14.8653 16.6538C14.9069 16.6018 14.9589 16.6018 14.9797 16.5914C15.0317 16.6018 15.0733 16.6018 15.1149 16.6538Z" fill="#002E60"/>
<path fill-rule="evenodd" clip-rule="evenodd" d="M14.8954 17.9124C14.8122 17.8292 14.6666 17.7668 14.5106 17.8916C14.4898 17.902 14.469 17.9228 14.4482 17.9436C14.313 18.0684 14.2922 18.1828 14.1466 18.2557C13.9489 18.3493 13.5953 18.3493 13.7097 18.7341C13.7513 18.8485 13.7513 18.8277 13.6473 18.8069C13.4601 18.7653 13.3041 18.6613 13.2833 18.4637C13.2729 18.2765 13.3665 18.1308 13.5225 18.0788C13.6265 18.0476 13.7409 18.0372 13.9489 17.8916C14.1986 17.7252 14.2298 17.5068 14.417 17.4132C14.5314 17.3716 14.6354 17.3716 14.7498 17.4132C14.9266 17.4964 14.9682 17.6836 14.9474 17.902C14.9474 17.9644 14.9162 17.9332 14.8954 17.9124Z" fill="#E41819"/>
<path fill-rule="evenodd" clip-rule="evenodd" d="M14.9372 18.9316V18.2867C14.9476 18.1411 14.8852 18.0371 14.7603 18.0059C14.7083 17.9955 14.6459 17.9955 14.5939 18.0267C14.5211 18.0683 14.4795 18.1411 14.4171 18.2139C14.3547 18.2867 14.2819 18.3595 14.1987 18.3907C14.1259 18.4219 14.0427 18.4323 13.9698 18.4739C13.8866 18.5155 13.8242 18.5779 13.8346 18.6923C13.8346 18.7547 13.8658 18.8171 13.9178 18.8588C13.9698 18.9004 14.0323 18.9212 14.1051 18.942L14.6563 19.1188C14.6979 19.1292 14.7187 19.1188 14.7395 19.0876C14.8019 18.994 14.8539 18.9836 14.906 18.9732C14.9372 18.9836 14.9372 18.9524 14.9372 18.9316Z" fill="#E41819"/>
<path fill-rule="evenodd" clip-rule="evenodd" d="M15.1355 17.9124C15.2187 17.8292 15.3644 17.7668 15.5204 17.8916C15.5412 17.902 15.562 17.9228 15.5828 17.9436C15.718 18.0684 15.7388 18.1828 15.8844 18.2557C16.082 18.3493 16.4357 18.3493 16.3213 18.7341C16.2797 18.8485 16.2797 18.8277 16.3837 18.8069C16.5709 18.7653 16.7269 18.6613 16.7477 18.4637C16.7581 18.2765 16.6645 18.1308 16.5085 18.0788C16.4045 18.0476 16.2901 18.0372 16.082 17.8916C15.8324 17.7252 15.8012 17.5068 15.614 17.4132C15.4996 17.3716 15.3956 17.3716 15.2811 17.4132C15.1043 17.4964 15.0627 17.6836 15.0835 17.902C15.0835 17.9644 15.1147 17.9332 15.1355 17.9124Z" fill="#E41819"/>
<path fill-rule="evenodd" clip-rule="evenodd" d="M15.0939 18.9316V18.2867C15.0835 18.1411 15.1459 18.0371 15.2707 18.0059C15.3228 17.9955 15.3852 17.9955 15.4372 18.0267C15.51 18.0683 15.5516 18.1411 15.614 18.2139C15.6764 18.2867 15.7492 18.3595 15.8324 18.3907C15.9052 18.4219 15.9884 18.4323 16.0612 18.4739C16.1444 18.5155 16.2069 18.5779 16.1965 18.6923C16.1965 18.7547 16.1652 18.8171 16.1132 18.8588C16.0612 18.9004 15.9988 18.9212 15.926 18.942L15.3748 19.1188C15.3644 19.1292 15.3436 19.1292 15.3332 19.1292C15.3228 19.1292 15.3228 19.1292 15.3123 19.1188C15.2291 18.994 15.1875 18.994 15.1147 18.9732C15.0939 18.9732 15.0835 18.9524 15.0939 18.9316Z" fill="#E41819"/>
<path fill-rule="evenodd" clip-rule="evenodd" d="M15.937 20.388C16.0514 20.4088 16.2074 20.3672 16.2594 20.1799C16.2698 20.1591 16.2698 20.1279 16.2802 20.0967C16.3114 19.9199 16.2594 19.8055 16.3426 19.6599C16.4466 19.4623 16.7378 19.2542 16.4154 19.015C16.3218 18.9526 16.3218 18.963 16.4258 18.9214C16.6026 18.8486 16.7899 18.8382 16.9251 18.9838C17.0395 19.1294 17.0603 19.2958 16.9563 19.4415C16.8939 19.5351 16.8107 19.6079 16.7274 19.8471C16.6338 20.1279 16.7274 20.3256 16.6234 20.5128C16.561 20.6168 16.4674 20.6792 16.353 20.7C16.1554 20.7416 16.0202 20.6064 15.9058 20.4192C15.8745 20.3672 15.9162 20.3776 15.937 20.388Z" fill="#E41819"/>
<path fill-rule="evenodd" clip-rule="evenodd" d="M15.3008 19.5975L15.6857 20.1176C15.7585 20.2424 15.8729 20.2944 15.9977 20.2424C16.0497 20.2216 16.0913 20.1904 16.1121 20.128C16.1433 20.0552 16.1433 19.9616 16.1433 19.868C16.1537 19.7743 16.1641 19.6703 16.2161 19.5975C16.2578 19.5351 16.3098 19.4623 16.3514 19.3999C16.393 19.3167 16.4034 19.2335 16.3306 19.1399C16.289 19.0879 16.237 19.0567 16.1641 19.0463C16.0913 19.0463 16.0393 19.0671 15.9665 19.0879L15.4153 19.2751C15.3841 19.2855 15.3633 19.3063 15.3737 19.3375C15.3841 19.4623 15.332 19.5143 15.2904 19.5455C15.28 19.5559 15.2904 19.5767 15.3008 19.5975Z" fill="#E41819"/>
<path fill-rule="evenodd" clip-rule="evenodd" d="M14.0848 20.388C13.9704 20.4088 13.8144 20.3672 13.7624 20.1799C13.752 20.1591 13.752 20.1279 13.7416 20.0967C13.7104 19.9199 13.7624 19.8055 13.6792 19.6599C13.5752 19.4623 13.2839 19.2542 13.6064 19.015C13.7 18.9526 13.7 18.963 13.596 18.9214C13.4191 18.8486 13.2319 18.8382 13.0967 18.9838C12.9823 19.1294 12.9615 19.2958 13.0655 19.4415C13.1279 19.5351 13.2111 19.6079 13.2943 19.8471C13.3879 20.1279 13.2943 20.3256 13.3983 20.5128C13.4608 20.6168 13.5544 20.6792 13.6688 20.7C13.8664 20.7416 14.0016 20.6064 14.116 20.4192C14.1576 20.3672 14.116 20.3776 14.0848 20.388Z" fill="#E41819"/>
<path fill-rule="evenodd" clip-rule="evenodd" d="M14.7193 19.5975L14.3345 20.1176C14.2617 20.2424 14.1473 20.2944 14.0225 20.2424C13.9705 20.2216 13.9289 20.1904 13.9081 20.128C13.8768 20.0552 13.8768 19.9616 13.8768 19.868C13.8664 19.7743 13.856 19.6703 13.804 19.5975C13.7624 19.5351 13.7 19.4623 13.6688 19.3999C13.6272 19.3167 13.6168 19.2335 13.6896 19.1399C13.7312 19.0879 13.7832 19.0567 13.856 19.0463C13.9289 19.0463 13.9809 19.0671 14.0537 19.0879L14.6049 19.2751C14.6361 19.2855 14.6465 19.2959 14.6569 19.3167C14.6361 19.4103 14.6777 19.4727 14.7297 19.5351C14.7401 19.5559 14.7401 19.5767 14.7193 19.5975Z" fill="#E41819"/>
<path fill-rule="evenodd" clip-rule="evenodd" d="M15.749 20.5126C15.7282 20.627 15.6554 20.7622 15.4474 20.7622C15.4162 20.7622 15.3954 20.7622 15.3642 20.7518C15.1874 20.731 15.0938 20.6478 14.9378 20.679C14.7193 20.7206 14.4281 20.9286 14.3033 20.5542C14.2721 20.4398 14.2825 20.4502 14.2097 20.5334C14.0849 20.679 14.0121 20.8558 14.1265 21.0222C14.2305 21.1783 14.3865 21.2407 14.5529 21.1887C14.6569 21.1574 14.7505 21.095 15.0106 21.0846C15.3122 21.0742 15.4682 21.2303 15.6658 21.1887C15.7803 21.1574 15.8739 21.095 15.9259 20.991C16.0195 20.8142 15.9363 20.6478 15.7907 20.4814C15.749 20.4398 15.749 20.4814 15.749 20.5126Z" fill="#E41819"/>
<path fill-rule="evenodd" clip-rule="evenodd" d="M15.188 19.6599L15.5728 20.18C15.6664 20.284 15.6872 20.4088 15.5936 20.5128C15.552 20.5544 15.5104 20.5857 15.448 20.5961C15.3648 20.6065 15.2816 20.5753 15.188 20.544C15.0943 20.5232 15.0007 20.5024 14.9071 20.5232C14.8343 20.544 14.7511 20.5753 14.6783 20.5857C14.5847 20.5961 14.5015 20.5857 14.4391 20.492C14.3975 20.44 14.3871 20.3776 14.4079 20.3048C14.4287 20.232 14.4703 20.1904 14.5119 20.128L14.8551 19.6599C14.8759 19.6391 14.8863 19.6183 14.9175 19.6287C15.0215 19.6807 15.1047 19.6495 15.1463 19.6287C15.1567 19.6287 15.1775 19.6495 15.188 19.6599Z" fill="#E41819"/>
<path d="M15.2396 19.3164C15.2396 19.4309 15.146 19.5349 15.0212 19.5349C14.9067 19.5349 14.8027 19.4413 14.8027 19.3164C14.8027 19.202 14.8963 19.098 15.0212 19.098C15.1356 19.098 15.2396 19.202 15.2396 19.3164Z" fill="#FEBE53"/>
<path fill-rule="evenodd" clip-rule="evenodd" d="M14.8128 17.2052C14.792 17.1844 14.792 17.174 14.8232 17.1532C14.8856 17.0804 14.9377 16.9972 15.0001 16.8932C15.0625 16.9868 15.1249 17.07 15.1769 17.1532C15.1977 17.1844 15.2081 17.1844 15.1873 17.2052C15.1145 17.2676 15.0417 17.3404 15.0001 17.4757C14.9689 17.3404 14.8856 17.2676 14.8128 17.2052Z" fill="#E41819"/>
<path fill-rule="evenodd" clip-rule="evenodd" d="M16.9556 18.4948C16.966 18.4636 16.9764 18.474 17.0076 18.4844C17.1012 18.5156 17.1948 18.5468 17.3092 18.578C17.2364 18.6612 17.174 18.7444 17.1116 18.8276C17.0908 18.8588 17.0908 18.8692 17.0596 18.8484C16.9764 18.7964 16.8828 18.7444 16.7476 18.7548C16.8724 18.6716 16.914 18.578 16.9556 18.4948Z" fill="#E41819"/>
<path fill-rule="evenodd" clip-rule="evenodd" d="M12.9502 18.8379C12.919 18.8587 12.919 18.8483 12.8982 18.8171C12.8462 18.7339 12.7837 18.6611 12.7109 18.5675C12.8254 18.5363 12.919 18.5051 13.0126 18.4739C13.0438 18.4635 13.0542 18.4531 13.0646 18.4843C13.0958 18.5675 13.1478 18.6715 13.2622 18.7443C13.127 18.7339 13.023 18.7963 12.9502 18.8379Z" fill="#E41819"/>
<path fill-rule="evenodd" clip-rule="evenodd" d="M16.3946 20.8872C16.4258 20.8872 16.4258 20.8976 16.4258 20.9392C16.4258 21.0328 16.4258 21.1368 16.4362 21.2512C16.3321 21.2096 16.2281 21.1784 16.1345 21.1576C16.1033 21.1472 16.0929 21.1472 16.0929 21.116C16.1137 21.0224 16.1345 20.9184 16.0825 20.7936C16.1969 20.8664 16.3009 20.8768 16.3946 20.8872Z" fill="#E41819"/>
<path fill-rule="evenodd" clip-rule="evenodd" d="M13.929 21.0952C13.9394 21.1264 13.929 21.1264 13.8874 21.1368C13.7938 21.168 13.7002 21.1992 13.5962 21.2408C13.6066 21.1264 13.6066 21.0224 13.5962 20.9287C13.5962 20.8975 13.5962 20.8871 13.6274 20.8767C13.721 20.8663 13.825 20.8559 13.929 20.7623C13.8874 20.8975 13.9082 21.012 13.929 21.0952Z" fill="#E41819"/>
</svg>
