<svg width="198" height="105" viewBox="0 0 198 105" fill="none" xmlns="http://www.w3.org/2000/svg">
<rect x="0.5" y="-0.5" width="196.095" height="104" transform="matrix(1 0 0 -1 0.453125 104)" stroke="#BDE1CE"/>
</svg>
