<svg width="144" height="66" viewBox="0 0 144 66" fill="none" xmlns="http://www.w3.org/2000/svg">
<path d="M143.174 7.62939e-06C143.174 8.53593 141.333 16.9883 137.756 24.8744C134.179 32.7606 128.936 39.9261 122.327 45.962C115.718 51.9978 107.872 56.7856 99.2371 60.0522C90.602 63.3187 81.3469 65 72.0003 65C62.6537 65 53.3987 63.3187 44.7635 60.0522C36.1284 56.7856 28.2823 51.9978 21.6733 45.9619C15.0642 39.9261 9.82167 32.7606 6.24488 24.8744C2.6681 16.9883 0.827148 8.53592 0.827148 0" stroke="#BDE1CE"/>
</svg>
